%!PS-Adobe-2.0 EPSF-2.0
%%Title: results.eps
%%Creator: gnuplot 5.0 patchlevel 0
%%CreationDate: Mon Jul  6 15:18:00 2015
%%DocumentFonts: (atend)
%%BoundingBox: 50 50 2210 1310
%%EndComments
%%BeginProlog
/gnudict 256 dict def
gnudict begin
%
% The following true/false flags may be edited by hand if desired.
% The unit line width and grayscale image gamma correction may also be changed.
%
/Color true def
/Blacktext false def
/Solid false def
/Dashlength 1 def
/Landscape false def
/Level1 false def
/Level3 false def
/Rounded false def
/ClipToBoundingBox false def
/SuppressPDFMark false def
/TransparentPatterns false def
/gnulinewidth 5.000 def
/userlinewidth gnulinewidth def
/Gamma 1.0 def
/BackgroundColor {-1.000 -1.000 -1.000} def
%
/vshift -166 def
/dl1 {
  10.0 Dashlength userlinewidth gnulinewidth div mul mul mul
  Rounded { currentlinewidth 0.75 mul sub dup 0 le { pop 0.01 } if } if
} def
/dl2 {
  10.0 Dashlength userlinewidth gnulinewidth div mul mul mul
  Rounded { currentlinewidth 0.75 mul add } if
} def
/hpt_ 31.5 def
/vpt_ 31.5 def
/hpt hpt_ def
/vpt vpt_ def
/doclip {
  ClipToBoundingBox {
    newpath 50 50 moveto 2210 50 lineto 2210 1310 lineto 50 1310 lineto closepath
    clip
  } if
} def
%
% Gnuplot Prolog Version 5.0 (Dec 2014)
%
%/SuppressPDFMark true def
%
/M {moveto} bind def
/L {lineto} bind def
/R {rmoveto} bind def
/V {rlineto} bind def
/N {newpath moveto} bind def
/Z {closepath} bind def
/C {setrgbcolor} bind def
/f {rlineto fill} bind def
/g {setgray} bind def
/Gshow {show} def   % May be redefined later in the file to support UTF-8
/vpt2 vpt 2 mul def
/hpt2 hpt 2 mul def
/Lshow {currentpoint stroke M 0 vshift R 
	Blacktext {gsave 0 setgray textshow grestore} {textshow} ifelse} def
/Rshow {currentpoint stroke M dup stringwidth pop neg vshift R
	Blacktext {gsave 0 setgray textshow grestore} {textshow} ifelse} def
/Cshow {currentpoint stroke M dup stringwidth pop -2 div vshift R 
	Blacktext {gsave 0 setgray textshow grestore} {textshow} ifelse} def
/UP {dup vpt_ mul /vpt exch def hpt_ mul /hpt exch def
  /hpt2 hpt 2 mul def /vpt2 vpt 2 mul def} def
/DL {Color {setrgbcolor Solid {pop []} if 0 setdash}
 {pop pop pop 0 setgray Solid {pop []} if 0 setdash} ifelse} def
/BL {stroke userlinewidth 2 mul setlinewidth
	Rounded {1 setlinejoin 1 setlinecap} if} def
/AL {stroke userlinewidth 2 div setlinewidth
	Rounded {1 setlinejoin 1 setlinecap} if} def
/UL {dup gnulinewidth mul /userlinewidth exch def
	dup 1 lt {pop 1} if 10 mul /udl exch def} def
/PL {stroke userlinewidth setlinewidth
	Rounded {1 setlinejoin 1 setlinecap} if} def
3.8 setmiterlimit
% Classic Line colors (version 5.0)
/LCw {1 1 1} def
/LCb {0 0 0} def
/LCa {0 0 0} def
/LC0 {1 0 0} def
/LC1 {0 1 0} def
/LC2 {0 0 1} def
/LC3 {1 0 1} def
/LC4 {0 1 1} def
/LC5 {1 1 0} def
/LC6 {0 0 0} def
/LC7 {1 0.3 0} def
/LC8 {0.5 0.5 0.5} def
% Default dash patterns (version 5.0)
/LTw {PL [] 1 setgray} def
/LTb {BL [] LCb DL} def
/LTa {AL [1 udl mul 2 udl mul] 0 setdash LCa setrgbcolor} def
/LT0 {PL [] LC0 DL} def
/LT1 {PL [2 dl1 3 dl2] LC1 DL} def
/LT2 {PL [1 dl1 1.5 dl2] LC2 DL} def
/LT3 {PL [6 dl1 2 dl2 1 dl1 2 dl2] LC3 DL} def
/LT4 {PL [1 dl1 2 dl2 6 dl1 2 dl2 1 dl1 2 dl2] LC4 DL} def
/LT5 {PL [4 dl1 2 dl2] LC5 DL} def
/LT6 {PL [1.5 dl1 1.5 dl2 1.5 dl1 1.5 dl2 1.5 dl1 6 dl2] LC6 DL} def
/LT7 {PL [3 dl1 3 dl2 1 dl1 3 dl2] LC7 DL} def
/LT8 {PL [2 dl1 2 dl2 2 dl1 6 dl2] LC8 DL} def
/SL {[] 0 setdash} def
/Pnt {stroke [] 0 setdash gsave 1 setlinecap M 0 0 V stroke grestore} def
/Dia {stroke [] 0 setdash 2 copy vpt add M
  hpt neg vpt neg V hpt vpt neg V
  hpt vpt V hpt neg vpt V closepath stroke
  Pnt} def
/Pls {stroke [] 0 setdash vpt sub M 0 vpt2 V
  currentpoint stroke M
  hpt neg vpt neg R hpt2 0 V stroke
 } def
/Box {stroke [] 0 setdash 2 copy exch hpt sub exch vpt add M
  0 vpt2 neg V hpt2 0 V 0 vpt2 V
  hpt2 neg 0 V closepath stroke
  Pnt} def
/Crs {stroke [] 0 setdash exch hpt sub exch vpt add M
  hpt2 vpt2 neg V currentpoint stroke M
  hpt2 neg 0 R hpt2 vpt2 V stroke} def
/TriU {stroke [] 0 setdash 2 copy vpt 1.12 mul add M
  hpt neg vpt -1.62 mul V
  hpt 2 mul 0 V
  hpt neg vpt 1.62 mul V closepath stroke
  Pnt} def
/Star {2 copy Pls Crs} def
/BoxF {stroke [] 0 setdash exch hpt sub exch vpt add M
  0 vpt2 neg V hpt2 0 V 0 vpt2 V
  hpt2 neg 0 V closepath fill} def
/TriUF {stroke [] 0 setdash vpt 1.12 mul add M
  hpt neg vpt -1.62 mul V
  hpt 2 mul 0 V
  hpt neg vpt 1.62 mul V closepath fill} def
/TriD {stroke [] 0 setdash 2 copy vpt 1.12 mul sub M
  hpt neg vpt 1.62 mul V
  hpt 2 mul 0 V
  hpt neg vpt -1.62 mul V closepath stroke
  Pnt} def
/TriDF {stroke [] 0 setdash vpt 1.12 mul sub M
  hpt neg vpt 1.62 mul V
  hpt 2 mul 0 V
  hpt neg vpt -1.62 mul V closepath fill} def
/DiaF {stroke [] 0 setdash vpt add M
  hpt neg vpt neg V hpt vpt neg V
  hpt vpt V hpt neg vpt V closepath fill} def
/Pent {stroke [] 0 setdash 2 copy gsave
  translate 0 hpt M 4 {72 rotate 0 hpt L} repeat
  closepath stroke grestore Pnt} def
/PentF {stroke [] 0 setdash gsave
  translate 0 hpt M 4 {72 rotate 0 hpt L} repeat
  closepath fill grestore} def
/Circle {stroke [] 0 setdash 2 copy
  hpt 0 360 arc stroke Pnt} def
/CircleF {stroke [] 0 setdash hpt 0 360 arc fill} def
/C0 {BL [] 0 setdash 2 copy moveto vpt 90 450 arc} bind def
/C1 {BL [] 0 setdash 2 copy moveto
	2 copy vpt 0 90 arc closepath fill
	vpt 0 360 arc closepath} bind def
/C2 {BL [] 0 setdash 2 copy moveto
	2 copy vpt 90 180 arc closepath fill
	vpt 0 360 arc closepath} bind def
/C3 {BL [] 0 setdash 2 copy moveto
	2 copy vpt 0 180 arc closepath fill
	vpt 0 360 arc closepath} bind def
/C4 {BL [] 0 setdash 2 copy moveto
	2 copy vpt 180 270 arc closepath fill
	vpt 0 360 arc closepath} bind def
/C5 {BL [] 0 setdash 2 copy moveto
	2 copy vpt 0 90 arc
	2 copy moveto
	2 copy vpt 180 270 arc closepath fill
	vpt 0 360 arc} bind def
/C6 {BL [] 0 setdash 2 copy moveto
	2 copy vpt 90 270 arc closepath fill
	vpt 0 360 arc closepath} bind def
/C7 {BL [] 0 setdash 2 copy moveto
	2 copy vpt 0 270 arc closepath fill
	vpt 0 360 arc closepath} bind def
/C8 {BL [] 0 setdash 2 copy moveto
	2 copy vpt 270 360 arc closepath fill
	vpt 0 360 arc closepath} bind def
/C9 {BL [] 0 setdash 2 copy moveto
	2 copy vpt 270 450 arc closepath fill
	vpt 0 360 arc closepath} bind def
/C10 {BL [] 0 setdash 2 copy 2 copy moveto vpt 270 360 arc closepath fill
	2 copy moveto
	2 copy vpt 90 180 arc closepath fill
	vpt 0 360 arc closepath} bind def
/C11 {BL [] 0 setdash 2 copy moveto
	2 copy vpt 0 180 arc closepath fill
	2 copy moveto
	2 copy vpt 270 360 arc closepath fill
	vpt 0 360 arc closepath} bind def
/C12 {BL [] 0 setdash 2 copy moveto
	2 copy vpt 180 360 arc closepath fill
	vpt 0 360 arc closepath} bind def
/C13 {BL [] 0 setdash 2 copy moveto
	2 copy vpt 0 90 arc closepath fill
	2 copy moveto
	2 copy vpt 180 360 arc closepath fill
	vpt 0 360 arc closepath} bind def
/C14 {BL [] 0 setdash 2 copy moveto
	2 copy vpt 90 360 arc closepath fill
	vpt 0 360 arc} bind def
/C15 {BL [] 0 setdash 2 copy vpt 0 360 arc closepath fill
	vpt 0 360 arc closepath} bind def
/Rec {newpath 4 2 roll moveto 1 index 0 rlineto 0 exch rlineto
	neg 0 rlineto closepath} bind def
/Square {dup Rec} bind def
/Bsquare {vpt sub exch vpt sub exch vpt2 Square} bind def
/S0 {BL [] 0 setdash 2 copy moveto 0 vpt rlineto BL Bsquare} bind def
/S1 {BL [] 0 setdash 2 copy vpt Square fill Bsquare} bind def
/S2 {BL [] 0 setdash 2 copy exch vpt sub exch vpt Square fill Bsquare} bind def
/S3 {BL [] 0 setdash 2 copy exch vpt sub exch vpt2 vpt Rec fill Bsquare} bind def
/S4 {BL [] 0 setdash 2 copy exch vpt sub exch vpt sub vpt Square fill Bsquare} bind def
/S5 {BL [] 0 setdash 2 copy 2 copy vpt Square fill
	exch vpt sub exch vpt sub vpt Square fill Bsquare} bind def
/S6 {BL [] 0 setdash 2 copy exch vpt sub exch vpt sub vpt vpt2 Rec fill Bsquare} bind def
/S7 {BL [] 0 setdash 2 copy exch vpt sub exch vpt sub vpt vpt2 Rec fill
	2 copy vpt Square fill Bsquare} bind def
/S8 {BL [] 0 setdash 2 copy vpt sub vpt Square fill Bsquare} bind def
/S9 {BL [] 0 setdash 2 copy vpt sub vpt vpt2 Rec fill Bsquare} bind def
/S10 {BL [] 0 setdash 2 copy vpt sub vpt Square fill 2 copy exch vpt sub exch vpt Square fill
	Bsquare} bind def
/S11 {BL [] 0 setdash 2 copy vpt sub vpt Square fill 2 copy exch vpt sub exch vpt2 vpt Rec fill
	Bsquare} bind def
/S12 {BL [] 0 setdash 2 copy exch vpt sub exch vpt sub vpt2 vpt Rec fill Bsquare} bind def
/S13 {BL [] 0 setdash 2 copy exch vpt sub exch vpt sub vpt2 vpt Rec fill
	2 copy vpt Square fill Bsquare} bind def
/S14 {BL [] 0 setdash 2 copy exch vpt sub exch vpt sub vpt2 vpt Rec fill
	2 copy exch vpt sub exch vpt Square fill Bsquare} bind def
/S15 {BL [] 0 setdash 2 copy Bsquare fill Bsquare} bind def
/D0 {gsave translate 45 rotate 0 0 S0 stroke grestore} bind def
/D1 {gsave translate 45 rotate 0 0 S1 stroke grestore} bind def
/D2 {gsave translate 45 rotate 0 0 S2 stroke grestore} bind def
/D3 {gsave translate 45 rotate 0 0 S3 stroke grestore} bind def
/D4 {gsave translate 45 rotate 0 0 S4 stroke grestore} bind def
/D5 {gsave translate 45 rotate 0 0 S5 stroke grestore} bind def
/D6 {gsave translate 45 rotate 0 0 S6 stroke grestore} bind def
/D7 {gsave translate 45 rotate 0 0 S7 stroke grestore} bind def
/D8 {gsave translate 45 rotate 0 0 S8 stroke grestore} bind def
/D9 {gsave translate 45 rotate 0 0 S9 stroke grestore} bind def
/D10 {gsave translate 45 rotate 0 0 S10 stroke grestore} bind def
/D11 {gsave translate 45 rotate 0 0 S11 stroke grestore} bind def
/D12 {gsave translate 45 rotate 0 0 S12 stroke grestore} bind def
/D13 {gsave translate 45 rotate 0 0 S13 stroke grestore} bind def
/D14 {gsave translate 45 rotate 0 0 S14 stroke grestore} bind def
/D15 {gsave translate 45 rotate 0 0 S15 stroke grestore} bind def
/DiaE {stroke [] 0 setdash vpt add M
  hpt neg vpt neg V hpt vpt neg V
  hpt vpt V hpt neg vpt V closepath stroke} def
/BoxE {stroke [] 0 setdash exch hpt sub exch vpt add M
  0 vpt2 neg V hpt2 0 V 0 vpt2 V
  hpt2 neg 0 V closepath stroke} def
/TriUE {stroke [] 0 setdash vpt 1.12 mul add M
  hpt neg vpt -1.62 mul V
  hpt 2 mul 0 V
  hpt neg vpt 1.62 mul V closepath stroke} def
/TriDE {stroke [] 0 setdash vpt 1.12 mul sub M
  hpt neg vpt 1.62 mul V
  hpt 2 mul 0 V
  hpt neg vpt -1.62 mul V closepath stroke} def
/PentE {stroke [] 0 setdash gsave
  translate 0 hpt M 4 {72 rotate 0 hpt L} repeat
  closepath stroke grestore} def
/CircE {stroke [] 0 setdash 
  hpt 0 360 arc stroke} def
/Opaque {gsave closepath 1 setgray fill grestore 0 setgray closepath} def
/DiaW {stroke [] 0 setdash vpt add M
  hpt neg vpt neg V hpt vpt neg V
  hpt vpt V hpt neg vpt V Opaque stroke} def
/BoxW {stroke [] 0 setdash exch hpt sub exch vpt add M
  0 vpt2 neg V hpt2 0 V 0 vpt2 V
  hpt2 neg 0 V Opaque stroke} def
/TriUW {stroke [] 0 setdash vpt 1.12 mul add M
  hpt neg vpt -1.62 mul V
  hpt 2 mul 0 V
  hpt neg vpt 1.62 mul V Opaque stroke} def
/TriDW {stroke [] 0 setdash vpt 1.12 mul sub M
  hpt neg vpt 1.62 mul V
  hpt 2 mul 0 V
  hpt neg vpt -1.62 mul V Opaque stroke} def
/PentW {stroke [] 0 setdash gsave
  translate 0 hpt M 4 {72 rotate 0 hpt L} repeat
  Opaque stroke grestore} def
/CircW {stroke [] 0 setdash 
  hpt 0 360 arc Opaque stroke} def
/BoxFill {gsave Rec 1 setgray fill grestore} def
/Density {
  /Fillden exch def
  currentrgbcolor
  /ColB exch def /ColG exch def /ColR exch def
  /ColR ColR Fillden mul Fillden sub 1 add def
  /ColG ColG Fillden mul Fillden sub 1 add def
  /ColB ColB Fillden mul Fillden sub 1 add def
  ColR ColG ColB setrgbcolor} def
/BoxColFill {gsave Rec PolyFill} def
/PolyFill {gsave Density fill grestore grestore} def
/h {rlineto rlineto rlineto gsave closepath fill grestore} bind def
%
% PostScript Level 1 Pattern Fill routine for rectangles
% Usage: x y w h s a XX PatternFill
%	x,y = lower left corner of box to be filled
%	w,h = width and height of box
%	  a = angle in degrees between lines and x-axis
%	 XX = 0/1 for no/yes cross-hatch
%
/PatternFill {gsave /PFa [ 9 2 roll ] def
  PFa 0 get PFa 2 get 2 div add PFa 1 get PFa 3 get 2 div add translate
  PFa 2 get -2 div PFa 3 get -2 div PFa 2 get PFa 3 get Rec
  TransparentPatterns {} {gsave 1 setgray fill grestore} ifelse
  clip
  currentlinewidth 0.5 mul setlinewidth
  /PFs PFa 2 get dup mul PFa 3 get dup mul add sqrt def
  0 0 M PFa 5 get rotate PFs -2 div dup translate
  0 1 PFs PFa 4 get div 1 add floor cvi
	{PFa 4 get mul 0 M 0 PFs V} for
  0 PFa 6 get ne {
	0 1 PFs PFa 4 get div 1 add floor cvi
	{PFa 4 get mul 0 2 1 roll M PFs 0 V} for
 } if
  stroke grestore} def
%
/languagelevel where
 {pop languagelevel} {1} ifelse
dup 2 lt
	{/InterpretLevel1 true def
	 /InterpretLevel3 false def}
	{/InterpretLevel1 Level1 def
	 2 gt
	    {/InterpretLevel3 Level3 def}
	    {/InterpretLevel3 false def}
	 ifelse }
 ifelse
%
% PostScript level 2 pattern fill definitions
%
/Level2PatternFill {
/Tile8x8 {/PaintType 2 /PatternType 1 /TilingType 1 /BBox [0 0 8 8] /XStep 8 /YStep 8}
	bind def
/KeepColor {currentrgbcolor [/Pattern /DeviceRGB] setcolorspace} bind def
<< Tile8x8
 /PaintProc {0.5 setlinewidth pop 0 0 M 8 8 L 0 8 M 8 0 L stroke} 
>> matrix makepattern
/Pat1 exch def
<< Tile8x8
 /PaintProc {0.5 setlinewidth pop 0 0 M 8 8 L 0 8 M 8 0 L stroke
	0 4 M 4 8 L 8 4 L 4 0 L 0 4 L stroke}
>> matrix makepattern
/Pat2 exch def
<< Tile8x8
 /PaintProc {0.5 setlinewidth pop 0 0 M 0 8 L
	8 8 L 8 0 L 0 0 L fill}
>> matrix makepattern
/Pat3 exch def
<< Tile8x8
 /PaintProc {0.5 setlinewidth pop -4 8 M 8 -4 L
	0 12 M 12 0 L stroke}
>> matrix makepattern
/Pat4 exch def
<< Tile8x8
 /PaintProc {0.5 setlinewidth pop -4 0 M 8 12 L
	0 -4 M 12 8 L stroke}
>> matrix makepattern
/Pat5 exch def
<< Tile8x8
 /PaintProc {0.5 setlinewidth pop -2 8 M 4 -4 L
	0 12 M 8 -4 L 4 12 M 10 0 L stroke}
>> matrix makepattern
/Pat6 exch def
<< Tile8x8
 /PaintProc {0.5 setlinewidth pop -2 0 M 4 12 L
	0 -4 M 8 12 L 4 -4 M 10 8 L stroke}
>> matrix makepattern
/Pat7 exch def
<< Tile8x8
 /PaintProc {0.5 setlinewidth pop 8 -2 M -4 4 L
	12 0 M -4 8 L 12 4 M 0 10 L stroke}
>> matrix makepattern
/Pat8 exch def
<< Tile8x8
 /PaintProc {0.5 setlinewidth pop 0 -2 M 12 4 L
	-4 0 M 12 8 L -4 4 M 8 10 L stroke}
>> matrix makepattern
/Pat9 exch def
/Pattern1 {PatternBgnd KeepColor Pat1 setpattern} bind def
/Pattern2 {PatternBgnd KeepColor Pat2 setpattern} bind def
/Pattern3 {PatternBgnd KeepColor Pat3 setpattern} bind def
/Pattern4 {PatternBgnd KeepColor Landscape {Pat5} {Pat4} ifelse setpattern} bind def
/Pattern5 {PatternBgnd KeepColor Landscape {Pat4} {Pat5} ifelse setpattern} bind def
/Pattern6 {PatternBgnd KeepColor Landscape {Pat9} {Pat6} ifelse setpattern} bind def
/Pattern7 {PatternBgnd KeepColor Landscape {Pat8} {Pat7} ifelse setpattern} bind def
} def
%
%
%End of PostScript Level 2 code
%
/PatternBgnd {
  TransparentPatterns {} {gsave 1 setgray fill grestore} ifelse
} def
%
% Substitute for Level 2 pattern fill codes with
% grayscale if Level 2 support is not selected.
%
/Level1PatternFill {
/Pattern1 {0.250 Density} bind def
/Pattern2 {0.500 Density} bind def
/Pattern3 {0.750 Density} bind def
/Pattern4 {0.125 Density} bind def
/Pattern5 {0.375 Density} bind def
/Pattern6 {0.625 Density} bind def
/Pattern7 {0.875 Density} bind def
} def
%
% Now test for support of Level 2 code
%
Level1 {Level1PatternFill} {Level2PatternFill} ifelse
%
/Symbol-Oblique /Symbol findfont [1 0 .167 1 0 0] makefont
dup length dict begin {1 index /FID eq {pop pop} {def} ifelse} forall
currentdict end definefont pop
%
/MFshow {
   { dup 5 get 3 ge
     { 5 get 3 eq {gsave} {grestore} ifelse }
     {dup dup 0 get findfont exch 1 get scalefont setfont
     [ currentpoint ] exch dup 2 get 0 exch R dup 5 get 2 ne {dup dup 6
     get exch 4 get {textshow} {stringwidth pop 0 R} ifelse }if dup 5 get 0 eq
     {dup 3 get {2 get neg 0 exch R pop} {pop aload pop M} ifelse} {dup 5
     get 1 eq {dup 2 get exch dup 3 get exch 6 get stringwidth pop -2 div
     dup 0 R} {dup 6 get stringwidth pop -2 div 0 R 6 get
     textshow 2 index {aload pop M neg 3 -1 roll neg R pop pop} {pop pop pop
     pop aload pop M} ifelse }ifelse }ifelse }
     ifelse }
   forall} def
/Gswidth {dup type /stringtype eq {stringwidth} {pop (n) stringwidth} ifelse} def
/MFwidth {0 exch { dup 5 get 3 ge { 5 get 3 eq { 0 } { pop } ifelse }
 {dup 3 get{dup dup 0 get findfont exch 1 get scalefont setfont
     6 get Gswidth pop add} {pop} ifelse} ifelse} forall} def
/MLshow { currentpoint stroke M
  0 exch R
  Blacktext {gsave 0 setgray MFshow grestore} {MFshow} ifelse } bind def
/MRshow { currentpoint stroke M
  exch dup MFwidth neg 3 -1 roll R
  Blacktext {gsave 0 setgray MFshow grestore} {MFshow} ifelse } bind def
/MCshow { currentpoint stroke M
  exch dup MFwidth -2 div 3 -1 roll R
  Blacktext {gsave 0 setgray MFshow grestore} {MFshow} ifelse } bind def
/XYsave    { [( ) 1 2 true false 3 ()] } bind def
/XYrestore { [( ) 1 2 true false 4 ()] } bind def
Level1 SuppressPDFMark or 
{} {
/SDict 10 dict def
systemdict /pdfmark known not {
  userdict /pdfmark systemdict /cleartomark get put
} if
SDict begin [
  /Title (results.eps)
  /Subject (gnuplot plot)
  /Creator (gnuplot 5.0 patchlevel 0)
  /Author (kevin)
%  /Producer (gnuplot)
%  /Keywords ()
  /CreationDate (Mon Jul  6 15:18:00 2015)
  /DOCINFO pdfmark
end
} ifelse
end
%
% Support for boxed text - Ethan A Merritt May 2005
%
/InitTextBox { userdict /TBy2 3 -1 roll put userdict /TBx2 3 -1 roll put
           userdict /TBy1 3 -1 roll put userdict /TBx1 3 -1 roll put
	   /Boxing true def } def
/ExtendTextBox { Boxing
    { gsave dup false charpath pathbbox
      dup TBy2 gt {userdict /TBy2 3 -1 roll put} {pop} ifelse
      dup TBx2 gt {userdict /TBx2 3 -1 roll put} {pop} ifelse
      dup TBy1 lt {userdict /TBy1 3 -1 roll put} {pop} ifelse
      dup TBx1 lt {userdict /TBx1 3 -1 roll put} {pop} ifelse
      grestore } if } def
/PopTextBox { newpath TBx1 TBxmargin sub TBy1 TBymargin sub M
               TBx1 TBxmargin sub TBy2 TBymargin add L
	       TBx2 TBxmargin add TBy2 TBymargin add L
	       TBx2 TBxmargin add TBy1 TBymargin sub L closepath } def
/DrawTextBox { PopTextBox stroke /Boxing false def} def
/FillTextBox { gsave PopTextBox 1 1 1 setrgbcolor fill grestore /Boxing false def} def
0 0 0 0 InitTextBox
/TBxmargin 20 def
/TBymargin 20 def
/Boxing false def
/textshow { ExtendTextBox Gshow } def
%
%%EndProlog
%%Page: 1 1
gnudict begin
gsave
doclip
50 50 translate
0.050 0.050 scale
0 setgray
newpath
(Helvetica) findfont 500 scalefont setfont
BackgroundColor 0 lt 3 1 roll 0 lt exch 0 lt or or not {BackgroundColor C 1.000 0 0 43200.00 25200.00 BoxColFill} if
1.000 UL
LTb
LCb setrgbcolor
1.000 UL
LTb
0.70 0.70 0.70 C 10113 10680 M
12743 0 V
stroke
LTb
LCb setrgbcolor
10113 10680 M
63 0 V
12680 0 R
-63 0 V
stroke
9813 10680 M
[ [(Helvetica) 500.0 0.0 true true 0 ( 0)]
] -166.7 MRshow
1.000 UL
LTb
LCb setrgbcolor
1.000 UL
LTb
0.70 0.70 0.70 C 10113 12126 M
12743 0 V
stroke
LTb
LCb setrgbcolor
10113 12126 M
63 0 V
12680 0 R
-63 0 V
stroke
9813 12126 M
[ [(Helvetica) 500.0 0.0 true true 0 ( 100)]
] -166.7 MRshow
1.000 UL
LTb
LCb setrgbcolor
1.000 UL
LTb
0.70 0.70 0.70 C 10113 13572 M
12743 0 V
stroke
LTb
LCb setrgbcolor
10113 13572 M
63 0 V
12680 0 R
-63 0 V
stroke
9813 13572 M
[ [(Helvetica) 500.0 0.0 true true 0 ( 200)]
] -166.7 MRshow
1.000 UL
LTb
LCb setrgbcolor
1.000 UL
LTb
0.70 0.70 0.70 C 10113 15018 M
12743 0 V
stroke
LTb
LCb setrgbcolor
10113 15018 M
63 0 V
12680 0 R
-63 0 V
stroke
9813 15018 M
[ [(Helvetica) 500.0 0.0 true true 0 ( 300)]
] -166.7 MRshow
1.000 UL
LTb
LCb setrgbcolor
1.000 UL
LTb
0.70 0.70 0.70 C 10113 16464 M
12743 0 V
stroke
LTb
LCb setrgbcolor
10113 16464 M
63 0 V
12680 0 R
-63 0 V
stroke
9813 16464 M
[ [(Helvetica) 500.0 0.0 true true 0 ( 400)]
] -166.7 MRshow
1.000 UL
LTb
LCb setrgbcolor
1.000 UL
LTb
0.70 0.70 0.70 C 10113 17911 M
12743 0 V
stroke
LTb
LCb setrgbcolor
10113 17911 M
63 0 V
12680 0 R
-63 0 V
stroke
9813 17911 M
[ [(Helvetica) 500.0 0.0 true true 0 ( 500)]
] -166.7 MRshow
1.000 UL
LTb
LCb setrgbcolor
1.000 UL
LTb
0.70 0.70 0.70 C 10113 19357 M
12743 0 V
stroke
LTb
LCb setrgbcolor
10113 19357 M
63 0 V
12680 0 R
-63 0 V
stroke
9813 19357 M
[ [(Helvetica) 500.0 0.0 true true 0 ( 600)]
] -166.7 MRshow
1.000 UL
LTb
LCb setrgbcolor
1.000 UL
LTb
0.70 0.70 0.70 C 10113 20803 M
12743 0 V
stroke
LTb
LCb setrgbcolor
10113 20803 M
63 0 V
12680 0 R
-63 0 V
stroke
9813 20803 M
[ [(Helvetica) 500.0 0.0 true true 0 ( 700)]
] -166.7 MRshow
1.000 UL
LTb
LCb setrgbcolor
1.000 UL
LTb
0.70 0.70 0.70 C 10113 22249 M
12743 0 V
stroke
LTb
LCb setrgbcolor
10113 22249 M
63 0 V
12680 0 R
-63 0 V
stroke
9813 22249 M
[ [(Helvetica) 500.0 0.0 true true 0 ( 800)]
] -166.7 MRshow
1.000 UL
LTb
LCb setrgbcolor
1.000 UL
LTb
0.70 0.70 0.70 C 10113 23695 M
12743 0 V
stroke
LTb
LCb setrgbcolor
10113 23695 M
63 0 V
12680 0 R
-63 0 V
stroke
9813 23695 M
[ [(Helvetica) 500.0 0.0 true true 0 ( 900)]
] -166.7 MRshow
1.000 UL
LTb
LCb setrgbcolor
1.000 UL
LTb
LCb setrgbcolor
10113 23695 N
0 -13015 V
12743 0 V
0 13015 V
-12743 0 V
Z stroke
1.000 UP
1.000 UL
LTb
LCb setrgbcolor
LCb setrgbcolor
16484 24445 M
[ [(Helvetica) 500.0 0.0 true true 0 (Native GDB and Python)]
] -166.7 MCshow
1.000 UL
LTb
LCb setrgbcolor
300 19195 N
0 4500 V
8163 0 V
0 -4500 V
-8163 0 V
Z stroke
% Begin plot #1
3.000 UL
LTb
0.58 0.00 0.83 C LCb setrgbcolor
6600 23445 M
[ [(Helvetica) 500.0 0.0 true true 0 (Nominal time)]
] -166.7 MRshow
3.000 UL
LTb
0.58 0.00 0.83 C 6900 23445 M
1263 0 V
10113 11446 M
1416 0 V
1416 0 V
1416 0 V
1416 0 V
1415 0 V
1416 15 V
1416 0 V
1416 -15 V
1416 15 V
% End plot #1
% Begin plot #2
stroke
LTb
0.00 0.62 0.45 C LCb setrgbcolor
6600 22945 M
[ [(Helvetica) 500.0 0.0 true true 0 (Breakpoint command)]
] -166.7 MRshow
3.000 UL
LTb
0.00 0.62 0.45 C 6900 22945 M
1263 0 V
1950 -7522 R
1416 897 V
1416 -116 V
1416 130 V
1416 130 V
1415 854 V
1416 -188 V
1416 -203 V
1416 -434 V
1416 521 V
% End plot #2
% Begin plot #3
stroke
LTb
0.34 0.71 0.91 C LCb setrgbcolor
6600 22445 M
[ [(Helvetica) 500.0 0.0 true true 0 (HW Watchpoint command)]
] -166.7 MRshow
3.000 UL
LTb
0.34 0.71 0.91 C 6900 22445 M
1263 0 V
1950 -7875 R
1416 -448 V
1416 434 V
1416 43 V
1416 -29 V
1415 -246 V
1416 506 V
1416 -173 V
1416 390 V
1416 -578 V
% End plot #3
% Begin plot #4
stroke
LTb
0.90 0.62 0.00 C LCb setrgbcolor
6600 21945 M
[ [(Helvetica) 500.0 0.0 true true 0 ( BP param 00)]
] -166.7 MRshow
3.000 UL
LTb
0.90 0.62 0.00 C 6900 21945 M
1263 0 V
1950 -7115 R
1416 347 V
1416 449 V
1416 477 V
1416 -376 V
1415 -362 V
1416 680 V
1416 -43 V
1416 -333 V
1416 -289 V
% End plot #4
% Begin plot #5
stroke
LTb
0.94 0.89 0.26 C LCb setrgbcolor
6600 21445 M
[ [(Helvetica) 500.0 0.0 true true 0 ( BP param 01)]
] -166.7 MRshow
3.000 UL
LTb
0.94 0.89 0.26 C 6900 21445 M
1263 0 V
1950 -5154 R
1416 289 V
1416 391 V
1416 86 V
1416 -72 V
1415 87 V
1416 43 V
1416 130 V
1416 -188 V
1416 -390 V
% End plot #5
% Begin plot #6
stroke
LTb
0.00 0.45 0.70 C LCb setrgbcolor
6600 20945 M
[ [(Helvetica) 500.0 0.0 true true 0 ( BP param 10)]
] -166.7 MRshow
3.000 UL
LTb
0.00 0.45 0.70 C 6900 20945 M
1263 0 V
1950 -3945 R
1416 -29 V
1416 520 V
1416 58 V
1416 29 V
1415 -217 V
1416 434 V
1416 448 V
1416 -144 V
1416 -709 V
% End plot #6
% Begin plot #7
stroke
LTb
0.90 0.12 0.06 C LCb setrgbcolor
6600 20445 M
[ [(Helvetica) 500.0 0.0 true true 0 ( BP param 11)]
] -166.7 MRshow
3.000 UL
LTb
0.90 0.12 0.06 C 6900 20445 M
1263 0 V
1950 -2722 R
1416 390 V
1416 -448 V
1416 665 V
1416 -188 V
1415 636 V
1416 -332 V
1416 101 V
1416 -145 V
1416 -419 V
% End plot #7
% Begin plot #8
stroke
LTb
0.00 0.00 0.00 C LCb setrgbcolor
6600 19945 M
[ [(Helvetica) 500.0 0.0 true true 0 (Function Breakpoint)]
] -166.7 MRshow
3.000 UL
LTb
0.00 0.00 0.00 C 6900 19945 M
1263 0 V
1950 -4927 R
1416 -159 V
1416 58 V
1416 231 V
1416 -260 V
1415 72 V
1416 449 V
1416 -289 V
1416 679 V
1416 -405 V
% End plot #8
% Begin plot #9
stroke
LTb
0.58 0.00 0.83 C LCb setrgbcolor
6600 19445 M
[ [(Helvetica) 500.0 0.0 true true 0 (Finish Breakpoint)]
] -166.7 MRshow
3.000 UL
LTb
0.58 0.00 0.83 C 6900 19445 M
1263 0 V
1950 649 R
1416 72 V
1416 926 V
1416 -824 V
1416 231 V
1415 246 V
1416 1215 V
1416 -1056 V
1416 1461 V
1416 -261 V
% End plot #9
stroke
2.000 UL
LTb
LCb setrgbcolor
1.000 UL
LTb
LCb setrgbcolor
10113 23695 N
0 -13015 V
12743 0 V
0 13015 V
-12743 0 V
Z stroke
1.000 UP
LCb setrgbcolor
4319 15117 M
[ [(Helvetica) 500.0 0.0 true true 0 (\(mc\)GDB BREAKPOINT COSTS)]
] -166.7 MCshow
LCb setrgbcolor
4319 14613 M
[ [(Helvetica) 500.0 0.0 true true 0 (\(in useconds\))]
] -166.7 MCshow
1.000 UL
LTb
LCb setrgbcolor
1.000 UL
LTb
LCb setrgbcolor
1.000 UL
LTb
0.70 0.70 0.70 C 24813 18240 M
17481 0 V
stroke
LTb
LCb setrgbcolor
24813 18240 M
63 0 V
17418 0 R
-63 0 V
stroke
24513 18240 M
[ [(Helvetica) 500.0 0.0 true true 0 ( 0)]
] -166.7 MRshow
1.000 UL
LTb
LCb setrgbcolor
1.000 UL
LTb
0.70 0.70 0.70 C 24813 19149 M
17481 0 V
stroke
LTb
LCb setrgbcolor
24813 19149 M
63 0 V
17418 0 R
-63 0 V
stroke
24513 19149 M
[ [(Helvetica) 500.0 0.0 true true 0 ( 200)]
] -166.7 MRshow
1.000 UL
LTb
LCb setrgbcolor
1.000 UL
LTb
0.70 0.70 0.70 C 24813 20058 M
17481 0 V
stroke
LTb
LCb setrgbcolor
24813 20058 M
63 0 V
17418 0 R
-63 0 V
stroke
24513 20058 M
[ [(Helvetica) 500.0 0.0 true true 0 ( 400)]
] -166.7 MRshow
1.000 UL
LTb
LCb setrgbcolor
1.000 UL
LTb
0.70 0.70 0.70 C 24813 20968 M
17481 0 V
stroke
LTb
LCb setrgbcolor
24813 20968 M
63 0 V
17418 0 R
-63 0 V
stroke
24513 20968 M
[ [(Helvetica) 500.0 0.0 true true 0 ( 600)]
] -166.7 MRshow
1.000 UL
LTb
LCb setrgbcolor
1.000 UL
LTb
0.70 0.70 0.70 C 24813 21877 M
17481 0 V
stroke
LTb
LCb setrgbcolor
24813 21877 M
63 0 V
17418 0 R
-63 0 V
stroke
24513 21877 M
[ [(Helvetica) 500.0 0.0 true true 0 ( 800)]
] -166.7 MRshow
1.000 UL
LTb
LCb setrgbcolor
1.000 UL
LTb
0.70 0.70 0.70 C 24813 22786 M
17481 0 V
stroke
LTb
LCb setrgbcolor
24813 22786 M
63 0 V
17418 0 R
-63 0 V
stroke
24513 22786 M
[ [(Helvetica) 500.0 0.0 true true 0 ( 1000)]
] -166.7 MRshow
1.000 UL
LTb
LCb setrgbcolor
1.000 UL
LTb
0.70 0.70 0.70 C 24813 23695 M
17481 0 V
stroke
LTb
LCb setrgbcolor
24813 23695 M
63 0 V
17418 0 R
-63 0 V
stroke
24513 23695 M
[ [(Helvetica) 500.0 0.0 true true 0 ( 1200)]
] -166.7 MRshow
1.000 UL
LTb
LCb setrgbcolor
1.000 UL
LTb
LCb setrgbcolor
24813 23695 N
0 -5455 V
17481 0 V
0 5455 V
-17481 0 V
Z stroke
1.000 UP
1.000 UL
LTb
LCb setrgbcolor
LCb setrgbcolor
33553 24445 M
[ [(Helvetica) 500.0 0.0 true true 0 (OpenMP)]
] -166.7 MCshow
% Begin plot #1
3.000 UL
LTb
0.58 0.00 0.83 C 24813 18240 M
1942 145 V
1943 -36 V
1942 36 V
1942 78 V
1943 -91 V
1942 18 V
1942 18 V
1943 -4 V
1942 13 V
% End plot #1
% Begin plot #2
stroke
LTb
0.00 0.62 0.45 C 24813 18381 M
1942 32 V
1943 4 V
1942 -50 V
1942 18 V
1943 -18 V
1942 41 V
1942 -59 V
1943 64 V
1942 -9 V
% End plot #2
% Begin plot #3
stroke
LTb
0.34 0.71 0.91 C 26755 23131 M
1943 -1318 V
1942 -50 V
3885 586 V
3884 19 V
1943 -614 V
1942 77 V
% End plot #3
% Begin plot #4
stroke
LTb
0.90 0.62 0.00 C 24813 21840 M
1942 605 V
5827 -273 V
1943 227 V
1942 -2932 V
1942 2969 V
1943 -737 V
1942 37 V
% End plot #4
% Begin plot #5
stroke
LTb
0.94 0.89 0.26 C 24813 22377 M
1942 -605 V
7770 32 V
1942 -2182 V
1942 -323 V
1943 3173 V
1942 -332 V
% End plot #5
% Begin plot #6
stroke
LTb
0.00 0.45 0.70 C 24813 18654 M
1942 1977 V
1943 9 V
1942 -2323 V
1942 2305 V
1943 427 V
1942 -713 V
3885 250 V
1942 -9 V
% End plot #6
stroke
2.000 UL
LTb
LCb setrgbcolor
1.000 UL
LTb
LCb setrgbcolor
24813 23695 N
0 -5455 V
17481 0 V
0 5455 V
-17481 0 V
Z stroke
1.000 UP
LCb setrgbcolor
4319 15117 M
[ [(Helvetica) 500.0 0.0 true true 0 (\(mc\)GDB BREAKPOINT COSTS)]
] -166.7 MCshow
LCb setrgbcolor
4319 14613 M
[ [(Helvetica) 500.0 0.0 true true 0 (\(in useconds\))]
] -166.7 MCshow
LCb setrgbcolor
33835 20156 M
[ [(Helvetica) 500.0 0.0 true true 0 (nominal time)]
] -166.7 MCshow
1.000 UL
LTb
LCb setrgbcolor
1.000 UL
LTb
LCb setrgbcolor
1.000 UL
LTb
0.70 0.70 0.70 C 24870 10672 M
17424 0 V
stroke
LTb
LCb setrgbcolor
24870 10672 M
63 0 V
17361 0 R
-63 0 V
stroke
24570 10672 M
[ [(Helvetica) 500.0 0.0 true true 0 ( 1000)]
] -166.7 MRshow
1.000 UL
LTb
LCb setrgbcolor
1.000 UL
LTb
0.70 0.70 0.70 C 24870 11309 M
17424 0 V
stroke
LTb
LCb setrgbcolor
24870 11309 M
63 0 V
17361 0 R
-63 0 V
stroke
24570 11309 M
[ [(Helvetica) 500.0 0.0 true true 0 ( 2000)]
] -166.7 MRshow
1.000 UL
LTb
LCb setrgbcolor
1.000 UL
LTb
0.70 0.70 0.70 C 24870 11945 M
17424 0 V
stroke
LTb
LCb setrgbcolor
24870 11945 M
63 0 V
17361 0 R
-63 0 V
stroke
24570 11945 M
[ [(Helvetica) 500.0 0.0 true true 0 ( 3000)]
] -166.7 MRshow
1.000 UL
LTb
LCb setrgbcolor
1.000 UL
LTb
0.70 0.70 0.70 C 24870 12582 M
17424 0 V
stroke
LTb
LCb setrgbcolor
24870 12582 M
63 0 V
17361 0 R
-63 0 V
stroke
24570 12582 M
[ [(Helvetica) 500.0 0.0 true true 0 ( 4000)]
] -166.7 MRshow
1.000 UL
LTb
LCb setrgbcolor
1.000 UL
LTb
0.70 0.70 0.70 C 24870 13218 M
17424 0 V
stroke
LTb
LCb setrgbcolor
24870 13218 M
63 0 V
17361 0 R
-63 0 V
stroke
24570 13218 M
[ [(Helvetica) 500.0 0.0 true true 0 ( 5000)]
] -166.7 MRshow
1.000 UL
LTb
LCb setrgbcolor
1.000 UL
LTb
0.70 0.70 0.70 C 24870 13855 M
17424 0 V
stroke
LTb
LCb setrgbcolor
24870 13855 M
63 0 V
17361 0 R
-63 0 V
stroke
24570 13855 M
[ [(Helvetica) 500.0 0.0 true true 0 ( 6000)]
] -166.7 MRshow
1.000 UL
LTb
LCb setrgbcolor
1.000 UL
LTb
0.70 0.70 0.70 C 24870 14491 M
17424 0 V
stroke
LTb
LCb setrgbcolor
24870 14491 M
63 0 V
17361 0 R
-63 0 V
stroke
24570 14491 M
[ [(Helvetica) 500.0 0.0 true true 0 ( 7000)]
] -166.7 MRshow
1.000 UL
LTb
LCb setrgbcolor
1.000 UL
LTb
0.70 0.70 0.70 C 24870 15128 M
17424 0 V
stroke
LTb
LCb setrgbcolor
24870 15128 M
63 0 V
17361 0 R
-63 0 V
stroke
24570 15128 M
[ [(Helvetica) 500.0 0.0 true true 0 ( 8000)]
] -166.7 MRshow
1.000 UL
LTb
LCb setrgbcolor
1.000 UL
LTb
0.70 0.70 0.70 C 24870 15764 M
17424 0 V
stroke
LTb
LCb setrgbcolor
24870 15764 M
63 0 V
17361 0 R
-63 0 V
stroke
24570 15764 M
[ [(Helvetica) 500.0 0.0 true true 0 ( 9000)]
] -166.7 MRshow
1.000 UL
LTb
LCb setrgbcolor
1.000 UL
LTb
0.70 0.70 0.70 C 24870 16401 M
17424 0 V
stroke
LTb
LCb setrgbcolor
24870 16401 M
63 0 V
17361 0 R
-63 0 V
stroke
24570 16401 M
[ [(Helvetica) 500.0 0.0 true true 0 ( 10000)]
] -166.7 MRshow
1.000 UL
LTb
LCb setrgbcolor
1.000 UL
LTb
0.70 0.70 0.70 C 24870 17037 M
17424 0 V
stroke
LTb
LCb setrgbcolor
24870 17037 M
63 0 V
17361 0 R
-63 0 V
stroke
24570 17037 M
[ [(Helvetica) 500.0 0.0 true true 0 ( 11000)]
] -166.7 MRshow
1.000 UL
LTb
LCb setrgbcolor
1.000 UL
LTb
LCb setrgbcolor
24870 17037 N
0 -6365 V
17424 0 V
0 6365 V
-17424 0 V
Z stroke
1.000 UP
1.000 UL
LTb
LCb setrgbcolor
1.000 UL
LTb
LCb setrgbcolor
25837 9135 N
0 1000 V
15489 0 V
0 -1000 V
-15489 0 V
Z stroke
% Begin plot #1
3.000 UL
LTb
0.58 0.00 0.83 C LCb setrgbcolor
29137 9885 M
[ [(Helvetica) 500.0 0.0 true true 0 (critical)]
] -166.7 MRshow
3.000 UL
LTb
0.58 0.00 0.83 C 29437 9885 M
1263 0 V
-5830 3928 R
1936 -267 V
1936 25 V
1936 781 V
1936 -53 V
1936 -778 V
1936 -154 V
1936 95 V
1936 -208 V
1936 94 V
% End plot #1
% Begin plot #2
stroke
LTb
0.00 0.62 0.45 C LCb setrgbcolor
29137 9385 M
[ [(Helvetica) 500.0 0.0 true true 0 (master)]
] -166.7 MRshow
3.000 UL
LTb
0.00 0.62 0.45 C 29437 9385 M
1263 0 V
-5830 1846 R
1936 -219 V
1936 -22 V
1936 14 V
1936 56 V
1936 -28 V
1936 4 V
1936 -1 V
1936 49 V
1936 23 V
% End plot #2
% Begin plot #3
stroke
LTb
0.34 0.71 0.91 C LCb setrgbcolor
34300 9885 M
[ [(Helvetica) 500.0 0.0 true true 0 (sections)]
] -166.7 MRshow
3.000 UL
LTb
0.34 0.71 0.91 C 34600 9885 M
1263 0 V
24870 15234 M
1936 33 V
1936 -275 V
1936 507 V
1936 1445 V
1936 -981 V
1936 464 V
1936 -1175 V
1936 174 V
1936 -135 V
% End plot #3
% Begin plot #4
stroke
LTb
0.90 0.62 0.00 C LCb setrgbcolor
34300 9385 M
[ [(Helvetica) 500.0 0.0 true true 0 (barrier)]
] -166.7 MRshow
3.000 UL
LTb
0.90 0.62 0.00 C 34600 9385 M
1263 0 V
24870 12499 M
1936 18 V
1936 191 V
1936 263 V
1936 644 V
1936 -914 V
1936 -13 V
1936 -45 V
1936 1129 V
1936 -970 V
% End plot #4
% Begin plot #5
stroke
LTb
0.94 0.89 0.26 C LCb setrgbcolor
39463 9885 M
[ [(Helvetica) 500.0 0.0 true true 0 (single)]
] -166.7 MRshow
3.000 UL
LTb
0.94 0.89 0.26 C 39763 9885 M
1263 0 V
24870 14227 M
1936 -81 V
1936 -82 V
1936 226 V
1936 -194 V
1936 179 V
1936 -79 V
1936 94 V
1936 524 V
1936 -741 V
% End plot #5
% Begin plot #6
stroke
LTb
0.00 0.45 0.70 C LCb setrgbcolor
39463 9385 M
[ [(Helvetica) 500.0 0.0 true true 0 (single task)]
] -166.7 MRshow
3.000 UL
LTb
0.00 0.45 0.70 C 39763 9385 M
1263 0 V
24870 13513 M
1936 -65 V
1936 248 V
1936 3 V
1936 586 V
1936 -412 V
1936 -248 V
1936 -14 V
1936 285 V
1936 -366 V
% End plot #6
stroke
2.000 UL
LTb
LCb setrgbcolor
1.000 UL
LTb
LCb setrgbcolor
24870 17037 N
0 -6365 V
17424 0 V
0 6365 V
-17424 0 V
Z stroke
1.000 UP
LCb setrgbcolor
4319 15117 M
[ [(Helvetica) 500.0 0.0 true true 0 (\(mc\)GDB BREAKPOINT COSTS)]
] -166.7 MCshow
LCb setrgbcolor
4319 14613 M
[ [(Helvetica) 500.0 0.0 true true 0 (\(in useconds\))]
] -166.7 MCshow
LCb setrgbcolor
33835 20156 M
[ [(Helvetica) 500.0 0.0 true true 0 (nominal time)]
] -166.7 MCshow
LCb setrgbcolor
33835 13101 M
[ [(Helvetica) 500.0 0.0 true true 0 (mcGDB time \(+BP hit count\))]
] -166.7 MCshow
1.000 UL
LTb
LCb setrgbcolor
1.000 UL
LTb
LCb setrgbcolor
1.000 UL
LTb
0.70 0.70 0.70 C 2550 2100 M
39744 0 V
stroke
LTb
LCb setrgbcolor
2550 2100 M
63 0 V
39681 0 R
-63 0 V
stroke
2250 2100 M
[ [(Helvetica) 500.0 0.0 true true 0 ( 0)]
] -166.7 MRshow
1.000 UL
LTb
LCb setrgbcolor
1.000 UL
LTb
0.70 0.70 0.70 C 2550 3180 M
39744 0 V
stroke
LTb
LCb setrgbcolor
2550 3180 M
63 0 V
39681 0 R
-63 0 V
stroke
2250 3180 M
[ [(Helvetica) 500.0 0.0 true true 0 ( 2000)]
] -166.7 MRshow
1.000 UL
LTb
LCb setrgbcolor
1.000 UL
LTb
0.70 0.70 0.70 C 2550 4259 M
39744 0 V
stroke
LTb
LCb setrgbcolor
2550 4259 M
63 0 V
39681 0 R
-63 0 V
stroke
2250 4259 M
[ [(Helvetica) 500.0 0.0 true true 0 ( 4000)]
] -166.7 MRshow
1.000 UL
LTb
LCb setrgbcolor
1.000 UL
LTb
0.70 0.70 0.70 C 2550 5339 M
39744 0 V
stroke
LTb
LCb setrgbcolor
2550 5339 M
63 0 V
39681 0 R
-63 0 V
stroke
2250 5339 M
[ [(Helvetica) 500.0 0.0 true true 0 ( 6000)]
] -166.7 MRshow
1.000 UL
LTb
LCb setrgbcolor
1.000 UL
LTb
0.70 0.70 0.70 C 2550 6419 M
39744 0 V
stroke
LTb
LCb setrgbcolor
2550 6419 M
63 0 V
39681 0 R
-63 0 V
stroke
2250 6419 M
[ [(Helvetica) 500.0 0.0 true true 0 ( 8000)]
] -166.7 MRshow
1.000 UL
LTb
LCb setrgbcolor
1.000 UL
LTb
0.70 0.70 0.70 C 2550 7498 M
39744 0 V
stroke
LTb
LCb setrgbcolor
2550 7498 M
63 0 V
39681 0 R
-63 0 V
stroke
2250 7498 M
[ [(Helvetica) 500.0 0.0 true true 0 ( 10000)]
] -166.7 MRshow
1.000 UL
LTb
LCb setrgbcolor
1.000 UL
LTb
0.70 0.70 0.70 C 2550 8578 M
39744 0 V
stroke
LTb
LCb setrgbcolor
2550 8578 M
63 0 V
39681 0 R
-63 0 V
stroke
2250 8578 M
[ [(Helvetica) 500.0 0.0 true true 0 ( 12000)]
] -166.7 MRshow
1.000 UL
LTb
LCb setrgbcolor
1.000 UL
LTb
LCb setrgbcolor
2550 8578 N
0 -6478 V
39744 0 V
0 6478 V
-39744 0 V
Z stroke
1.000 UP
1.000 UL
LTb
LCb setrgbcolor
LCb setrgbcolor
22422 9328 M
[ [(Helvetica) 500.0 0.0 true true 0 (All together)]
] -166.7 MCshow
1.000 UL
LTb
LCb setrgbcolor
2014 63 N
0 1500 V
40815 0 V
0 -1500 V
2014 63 L
Z stroke
% Begin plot #1
3.000 UL
LTb
0.58 0.00 0.83 C LCb setrgbcolor
8314 1313 M
[ [(Helvetica) 500.0 0.0 true true 0 (Nominal time)]
] -166.7 MRshow
3.000 UL
LTb
0.58 0.00 0.83 C 8614 1313 M
1263 0 V
2550 2129 M
4416 0 V
4416 0 V
4416 0 V
4416 0 V
4416 0 V
4416 0 V
4416 0 V
4416 0 V
4416 0 V
% End plot #1
% Begin plot #2
stroke
LTb
0.00 0.62 0.45 C LCb setrgbcolor
8314 813 M
[ [(Helvetica) 500.0 0.0 true true 0 (Breakpoint command)]
] -166.7 MRshow
3.000 UL
LTb
0.00 0.62 0.45 C 8614 813 M
1263 0 V
2550 2277 M
4416 34 V
4416 -5 V
4416 5 V
4416 5 V
4416 32 V
4416 -7 V
4416 -8 V
4416 -16 V
4416 19 V
% End plot #2
% Begin plot #3
stroke
LTb
0.34 0.71 0.91 C LCb setrgbcolor
8314 313 M
[ [(Helvetica) 500.0 0.0 true true 0 (HW Watchpoint command)]
] -166.7 MRshow
3.000 UL
LTb
0.34 0.71 0.91 C 8614 313 M
1263 0 V
2550 2245 M
4416 -17 V
4416 17 V
4416 1 V
4416 -1 V
4416 -9 V
4416 19 V
4416 -7 V
4416 15 V
4416 -22 V
% End plot #3
% Begin plot #4
stroke
LTb
0.90 0.62 0.00 C LCb setrgbcolor
16477 1313 M
[ [(Helvetica) 500.0 0.0 true true 0 ( BP param 00)]
] -166.7 MRshow
3.000 UL
LTb
0.90 0.62 0.00 C 16777 1313 M
1263 0 V
2550 2255 M
4416 13 V
4416 17 V
4416 17 V
4416 -14 V
4416 -13 V
4416 25 V
4416 -1 V
4416 -13 V
4416 -11 V
% End plot #4
% Begin plot #5
stroke
LTb
0.94 0.89 0.26 C LCb setrgbcolor
16477 813 M
[ [(Helvetica) 500.0 0.0 true true 0 ( BP param 01)]
] -166.7 MRshow
3.000 UL
LTb
0.94 0.89 0.26 C 16777 813 M
1263 0 V
2550 2309 M
4416 11 V
4416 15 V
4416 3 V
4416 -3 V
4416 4 V
4416 1 V
4416 5 V
4416 -7 V
4416 -15 V
% End plot #5
% Begin plot #6
stroke
LTb
0.00 0.45 0.70 C LCb setrgbcolor
16477 313 M
[ [(Helvetica) 500.0 0.0 true true 0 ( BP param 10)]
] -166.7 MRshow
3.000 UL
LTb
0.00 0.45 0.70 C 16777 313 M
1263 0 V
2550 2336 M
4416 -1 V
4416 19 V
4416 2 V
4416 2 V
4416 -9 V
4416 17 V
4416 16 V
4416 -5 V
4416 -27 V
% End plot #6
% Begin plot #7
stroke
LTb
0.90 0.12 0.06 C LCb setrgbcolor
24640 1313 M
[ [(Helvetica) 500.0 0.0 true true 0 ( BP param 11)]
] -166.7 MRshow
3.000 UL
LTb
0.90 0.12 0.06 C 24940 1313 M
1263 0 V
2550 2363 M
4416 14 V
4416 -16 V
4416 25 V
4416 -7 V
4416 23 V
4416 -12 V
4416 4 V
4416 -6 V
4416 -15 V
% End plot #7
% Begin plot #8
stroke
LTb
0.00 0.00 0.00 C LCb setrgbcolor
24640 813 M
[ [(Helvetica) 500.0 0.0 true true 0 (Function Breakpoint)]
] -166.7 MRshow
3.000 UL
LTb
0.00 0.00 0.00 C 24940 813 M
1263 0 V
2550 2262 M
4416 -6 V
4416 2 V
4416 9 V
4416 -10 V
4416 3 V
4416 17 V
4416 -11 V
4416 25 V
4416 -15 V
% End plot #8
% Begin plot #9
stroke
LTb
0.58 0.00 0.83 C LCb setrgbcolor
24640 313 M
[ [(Helvetica) 500.0 0.0 true true 0 (Finish Breakpoint)]
] -166.7 MRshow
3.000 UL
LTb
0.58 0.00 0.83 C 24940 313 M
1263 0 V
2550 2451 M
4416 3 V
4416 35 V
4416 -31 V
4416 9 V
4416 9 V
4416 45 V
4416 -39 V
4416 54 V
4416 -10 V
% End plot #9
% Begin plot #10
stroke
LTb
0.00 0.62 0.45 C LCb setrgbcolor
32803 1313 M
[ [(Helvetica) 500.0 0.0 true true 0 (critical)]
] -166.7 MRshow
3.000 UL
LTb
0.00 0.62 0.45 C 33103 1313 M
1263 0 V
2550 5304 M
6966 5078 L
4416 20 V
4416 663 V
4416 -45 V
4416 -660 V
4416 -131 V
4416 81 V
4416 -176 V
4416 79 V
% End plot #10
% Begin plot #11
stroke
LTb
0.34 0.71 0.91 C LCb setrgbcolor
32803 813 M
[ [(Helvetica) 500.0 0.0 true true 0 (master)]
] -166.7 MRshow
3.000 UL
LTb
0.34 0.71 0.91 C 33103 813 M
1263 0 V
2550 3114 M
6966 2928 L
4416 -19 V
4416 12 V
4416 48 V
4416 -24 V
4416 4 V
4416 -1 V
4416 41 V
4416 20 V
% End plot #11
% Begin plot #12
stroke
LTb
0.90 0.62 0.00 C LCb setrgbcolor
32803 313 M
[ [(Helvetica) 500.0 0.0 true true 0 (sections)]
] -166.7 MRshow
3.000 UL
LTb
0.90 0.62 0.00 C 33103 313 M
1263 0 V
2550 6509 M
4416 28 V
4416 -233 V
4416 429 V
4416 1226 V
4416 -832 V
4416 393 V
4416 -996 V
4416 148 V
4416 -115 V
% End plot #12
% Begin plot #13
stroke
LTb
0.94 0.89 0.26 C LCb setrgbcolor
40966 1313 M
[ [(Helvetica) 500.0 0.0 true true 0 (barrier)]
] -166.7 MRshow
3.000 UL
LTb
0.94 0.89 0.26 C 41266 1313 M
1263 0 V
2550 4190 M
4416 15 V
4416 162 V
4416 223 V
4416 546 V
4416 -776 V
4416 -10 V
4416 -39 V
4416 958 V
4416 -822 V
% End plot #13
% Begin plot #14
stroke
LTb
0.00 0.45 0.70 C LCb setrgbcolor
40966 813 M
[ [(Helvetica) 500.0 0.0 true true 0 (single)]
] -166.7 MRshow
3.000 UL
LTb
0.00 0.45 0.70 C 41266 813 M
1263 0 V
2550 5655 M
4416 -69 V
4416 -69 V
4416 191 V
4416 -164 V
4416 151 V
4416 -66 V
4416 79 V
4416 445 V
4416 -628 V
% End plot #14
% Begin plot #15
stroke
LTb
0.90 0.12 0.06 C LCb setrgbcolor
40966 313 M
[ [(Helvetica) 500.0 0.0 true true 0 (single task)]
] -166.7 MRshow
3.000 UL
LTb
0.90 0.12 0.06 C 41266 313 M
1263 0 V
2550 5049 M
4416 -54 V
4416 210 V
4416 2 V
4416 497 V
4416 -349 V
4416 -211 V
4416 -11 V
4416 241 V
4416 -310 V
% End plot #15
stroke
2.000 UL
LTb
LCb setrgbcolor
1.000 UL
LTb
LCb setrgbcolor
2550 8578 N
0 -6478 V
39744 0 V
0 6478 V
-39744 0 V
Z stroke
1.000 UP
LCb setrgbcolor
4319 15117 M
[ [(Helvetica) 500.0 0.0 true true 0 (\(mc\)GDB BREAKPOINT COSTS)]
] -166.7 MCshow
LCb setrgbcolor
4319 14613 M
[ [(Helvetica) 500.0 0.0 true true 0 (\(in useconds\))]
] -166.7 MCshow
LCb setrgbcolor
33835 20156 M
[ [(Helvetica) 500.0 0.0 true true 0 (nominal time)]
] -166.7 MCshow
LCb setrgbcolor
33835 13101 M
[ [(Helvetica) 500.0 0.0 true true 0 (mcGDB time \(+BP hit count\))]
] -166.7 MCshow
1.000 UL
LTb
LCb setrgbcolor
stroke
grestore
end
showpage
%%Trailer
%%DocumentFonts: Helvetica
